module cloudfunction

require (
	git.apache.org/thrift.git v0.12.0 // indirect
	github.com/Shopify/sarama v1.20.1 // indirect
	github.com/go-logfmt/logfmt v0.4.0 // indirect
	github.com/gogo/protobuf v1.2.0 // indirect
	github.com/golang/lint v0.0.0-20181217174547-8f45f776aaf1 // indirect
	github.com/golang/mock v1.2.0 // indirect
	github.com/google/go-cmp v0.3.1
	github.com/gorilla/websocket v1.4.0 // indirect
	github.com/grpc-ecosystem/grpc-gateway v1.6.4 // indirect
	github.com/lusis/slack-test v0.0.0-20180109053238-3c758769bfa6 // indirect
	github.com/nlopes/slack v0.5.0
	github.com/openzipkin/zipkin-go v0.1.5 // indirect
	github.com/pkg/errors v0.8.1 // indirect
	github.com/prometheus/client_golang v0.9.2 // indirect
	github.com/prometheus/client_model v0.0.0-20190115171406-56726106282f // indirect
	github.com/prometheus/common v0.0.0-20190107103113-2998b132700a // indirect
	github.com/prometheus/procfs v0.0.0-20190117184657-bf6a532e95b1 // indirect
	github.com/sirupsen/logrus v1.3.0 // indirect
	github.com/stretchr/testify v1.3.0 // indirect
	golang.org/x/crypto v0.0.0-20190103213133-ff983b9c42bc // indirect
	golang.org/x/lint v0.0.0-20181217174547-8f45f776aaf1 // indirect
	golang.org/x/net v0.0.0-20190110200230-915654e7eabc
	golang.org/x/oauth2 v0.0.0-20190115181402-5dab4167f31c
	golang.org/x/sys v0.0.0-20190116161447-11f53e031339 // indirect
	golang.org/x/tools v0.0.0-20190118193359-16909d206f00 // indirect
	google.golang.org/api v0.1.0
	google.golang.org/genproto v0.0.0-20190111180523-db91494dd46c // indirect
	google.golang.org/grpc v1.18.0 // indirect
	gopkg.in/check.v1 v1.0.0-20180628173108-788fd7840127 // indirect
	gopkg.in/yaml.v2 v2.2.2 // indirect
	honnef.co/go/tools v0.0.0-20190109154334-5bcec433c8ea // indirect
)

go 1.13
